…
#### Section 3: Q & A

**1. In 2002, which states were observed at 7 locations?**

``` r
brfss_data %>%
  filter(year == 2002) %>%
  group_by(locationabbr) %>%
  summarize(n = n_distinct(locationdesc))
```

    ## # A tibble: 49 x 2
    ##    locationabbr     n
    ##    <chr>        <int>
    ##  1 AK               1
    ##  2 AL               1
    ##  3 AR               1
    ##  4 AZ               2
    ##  5 CA               1
    ##  6 CO               4
    ##  7 CT               7
    ##  8 DC               1
    ##  9 DE               3
    ## 10 FL               7
    ## # ... with 39 more rows
…
